{
    "editor": [
        {
            "icon": "",
            "key": "preGame",
            "header": "Pre Game Settings",
            "disabled": false,
            "fields": [
                {
                    "key": "bgImg",
                    "header": "Game Background Image",
                    "type": "image"
                },
                {
                    "key": "bg2Img",
                    "header": "Background Image",
                    "type": "image"
                },
                {
                    "key": "ground",
                    "header": "Platform Image",
                    "type": "image"
                },
                {
                    "key": "logo",
                    "header": "Logo",
                    "type": "image"
                },
                {
                    "key": "title",
                    "header": "Game Title",
                    "type": "text"
                },
                {
                    "key": "ballThrow",
                    "header": "Ball Throw",
                    "type": "sound"
                },
                {
                    "key": "ballHit",
                    "header": "Ball Hit",
                    "type": "sound"
                },
                {
                    "key": "score",
                    "header": "Ball Score",
                    "type": "sound"
                },
                {
                    "key": "fail",
                    "header": "No Score Sound",
                    "type": "sound"
                },
                {
                    "key": "spawn",
                    "header": "Ball Spawn Sound",
                    "type": "sound"
                },
                {
                    "key": "musicVolume",
                    "header": "Volume",
                    "type": "range",
                    "options": {
                        "minValue": 0,
                        "maxValue": 1,
                        "stepSize": "0.1"
                    }
                },
                {
                    "key": "boardImg",
                    "header": "Basketball Board image",
                    "type": "image"
                },
                {
                    "key": "hoopImg",
                    "header": "Hoop Image",
                    "type": "image"
                },
                {
                    "key": "hoopEndImg",
                    "header": "Hoop End Image",
                    "type": "image"
                },
                {
                    "key": "ballImg",
                    "header": "BasketBall Image",
                    "type": "image"
                },
                {
                    "key": "ballScale",
                    "header": "Initial Ball Scale",
                    "type": "range",
                    "options": {
                        "minValue": 0,
                        "maxValue": 1,
                        "stepSize": "0.01"
                    }
                },
                {
                    "key": "ballThrowScale",
                    "header": "Board Throw Scale",
                    "type": "range",
                    "options": {
                        "minValue": 0,
                        "maxValue": 1,
                        "stepSize": "0.01"
                    }
                },
                {
                    "key": "platform",
                    "header": "Platform Image",
                    "type": "image"
                },
                {
                    "key": "platformScale",
                    "header": "Ball Platform Scale",
                    "type": "range",
                    "options": {
                        "minValue": 0,
                        "maxValue": 1,
                        "stepSize": "0.01"
                    }
                },
                {
                    "key": "addImg",
                    "header": "Add Image",
                    "type": "image"
                },
                {
                    "key": "addScale",
                    "header": "advertisement Scale",
                    "type": "range",
                    "options": {
                        "minValue": 0,
                        "maxValue": 1,
                        "stepSize": "0.01"
                    }
                }
            ]
        },
        {
            "icon": "",
            "key": "game",
            "header": "Game Settings",
            "disabled": false,
            "fields": [
                {
                    "key": "textColor",
                    "header": "Text Color",
                    "type": "color"
                },
                {
                    "key": "enableTimer",
                    "header": "Enable Timer",
                    "type": "boolean"
                },
                {
                    "key": "timer",
                    "header": "Timer",
                    "type": "range",
                    "options": {
                        "minValue": 10,
                        "maxValue": 200,
                        "stepSize": "10"
                    }
                },
                {
                    "key": "instruction1",
                    "header": "Game instruction 1",
                    "type": "text"
                },
                {
                    "key": "instruction2",
                    "header": "Game instruction 2",
                    "type": "text"
                },
                {
                    "key": "instruction3",
                    "header": "Game instruction 3",
                    "type": "text"
                },
                {
                    "key": "instruction4",
                    "header": "Game instruction 4",
                    "type": "text"
                },
                {
                    "key": "winText",
                    "header": "Game Win",
                    "type": "text"
                },
                {
                    "key": "loseText",
                    "header": "Game Lose",
                    "type": "text"
                },
                {
                    "key": "scoreText",
                    "header": "Score Text Area",
                    "type": "text"
                },
                {
                    "key": "startingScoreGain",
                    "header": "Starting Score Gain ",
                    "type": "text"
                },
                {
                    "key": "winScore",
                    "header": "Minimum Score for Win",
                    "type": "text"
                },
                {
                    "key": "ctaText",
                    "header": "Cta Text",
                    "type": "text"
                },
                {
                    "key": "ctaUrl",
                    "header": "Cta URL",
                    "type": "text"
                }
            ]
        }
    ],
    "config": {
        "preGame": {
            "bgImg": "https://frontend.apps.playcent.com/71883ef7c15346dfa49869a1ffaa6684/assets/public_assets_bg.png",
            "bg2Img": "https://frontend.apps.playcent.com/71883ef7c15346dfa49869a1ffaa6684/assets/public_assets_bg2.jpg",
            "logo": "https://frontend.apps.playcent.com/71883ef7c15346dfa49869a1ffaa6684/assets/imageedit_3_5360610586 (1) (1).png",
            "title": "Basket Ball Fury",
            "ballThrow": "../assets/whoosh.wav",
            "ballHit": "../assets/backboard.wav",
            "score": "../assets/score.wav",
            "fail": "../assets/fail.wav",
            "spawn": "../assets/spawn.wav",
            "musicVolume": "0.2",
            "boardImg": "https://frontend.apps.playcent.com/71883ef7c15346dfa49869a1ffaa6684/assets/public_assets_basket.png",
            "hoopImg": "https://frontend.apps.playcent.com/71883ef7c15346dfa49869a1ffaa6684/assets/public_assets_rim.png",
            "hoopEndImg": "https://frontend.apps.playcent.com/71883ef7c15346dfa49869a1ffaa6684/assets/public_assets_side.png",
            "ballImg": "https://frontend.apps.playcent.com/71883ef7c15346dfa49869a1ffaa6684/assets/imageedit_3_5360610586 (1) (1).png",
            "ballScale": "0.25",
            "ballThrowScale": "0.15",
            "ground": "https://frontend.apps.playcent.com/71883ef7c15346dfa49869a1ffaa6684/assets/public_assets_box (2).png",
            "platform": "https://frontend.apps.playcent.com/71883ef7c15346dfa49869a1ffaa6684/assets/public_assets_box (2) (1).png",
            "platformScale": "0.5",
            "addImg": "https://frontend.apps.playcent.com/71883ef7c15346dfa49869a1ffaa6684/assets/XBtcYXED (1).jpg",
            "addScale": "0.4"
        },
        "game": {
            "textColor": "#000000",
            "enableTimer": "true",
            "timer": "30",
            "instruction1": "Quickly Drag Ball Up to Shoot",
            "instruction2": "Shoot The Ball Inside ",
            "instruction3": "The Rim To Score Points",
            "instruction4": "Score More Than 100 To Win",
            "winText": "You Won",
            "loseText": "Try Again",
            "scoreText": "Good Job",
            "startingScoreGain": "20",
            "winScore": "20",
            "ctaText": "Check Out Playcent",
            "ctaUrl": "https://www.placent.com"
        }
    }
}